#VRML V2.0 utf8

# Generated by VCGLIB, (C)Copyright 1999-2001 VCG, IEI-CNR

NavigationInfo {
	type [ "EXAMINE", "ANY" ]
}
Transform {
  scale 1 1 1
  translation 0 0 0
  children
  [
    Shape
    {
      geometry IndexedFaceSet
      {
        creaseAngle .5
        solid FALSE
        coord Coordinate
        {
          point
          [
            -0.0180515 0.0281347 1.98573e-07, -0.0140564 0.0281347 1.7499e-07, -0.0140564 0.0331685 1.98573e-07, 0.000182182 0.0281347 1.36212e-07, 
            0.000182182 0.0391388 1.98573e-07, -0.0311077 0.0281347 3.40959e-07, -0.028295 0.0281347 2.98683e-07, -0.028295 0.0338638 3.40959e-07, 
            -0.0347239 0.0281347 4.83345e-07, -0.028295 0.039365 4.83345e-07, -0.0192945 0.0423733 3.40959e-07, -0.0140564 0.0423733 2.8934e-07, 
            -0.0140564 0.0456771 3.40959e-07, 0.000182182 0.0423733 2.37042e-07, 0.000182182 0.0489398 3.40959e-07, -0.0243891 0.0423733 4.83345e-07, 
            -0.0140564 0.0485879 4.83345e-07, 0.000182182 0.0512956 4.83345e-07, -0.0218937 0.0138961 1.98573e-07, -0.0140564 0.0138961 1.48841e-07, 
            0.000182182 0.0138961 1.11609e-07, -0.016473 -0.000342488 1.98573e-07, -0.0140564 -0.000342488 1.84301e-07, 0.000182182 -0.000342488 1.44422e-07, 
            -0.0338724 0.0138961 3.40959e-07, -0.028295 0.0138961 2.61513e-07, -0.0372969 0.0138961 4.83345e-07, -0.0304608 -0.000342488 3.40959e-07, 
            -0.028295 -0.000342488 3.09922e-07, -0.0344615 -0.000342488 4.83345e-07, 0.0144208 0.0281347 1.71494e-07, 0.0144208 0.0333065 1.98573e-07, 
            0.0188295 0.0281347 1.98573e-07, 0.0144208 0.0423733 2.86231e-07, 0.0144208 0.0461782 3.40959e-07, 0.0202754 0.0423733 3.40959e-07, 
            0.0144208 0.0494636 4.83345e-07, 0.025557 0.0423733 4.83345e-07, 0.0286594 0.0281347 2.93437e-07, 0.0286594 0.0340135 3.40959e-07, 
            0.0286594 0.0396773 4.83345e-07, 0.0317729 0.0281347 3.40959e-07, 0.035645 0.0281347 4.83345e-07, 0.0144208 0.0138961 1.43219e-07, 
            0.0229657 0.0138961 1.98573e-07, 0.0144208 -0.000342488 1.82769e-07, 0.0169504 -0.000342488 1.98573e-07, 0.0286594 0.0138961 2.56563e-07, 
            0.0286594 -0.000342488 3.18896e-07, 0.0343615 0.0138961 3.40959e-07, 0.0380585 0.0138961 4.83345e-07, 0.0300461 -0.000342488 3.40959e-07, 
            0.0343135 -0.000342488 4.83345e-07, -0.0307056 0.0281347 6.25731e-07, -0.028295 0.0330913 6.25731e-07, -0.028295 0.0281347 6.634e-07, 
            -0.018828 0.0423733 6.25731e-07, -0.0140564 0.0454066 6.25731e-07, 0.000182182 0.0486534 6.25731e-07, -0.0140564 0.0423733 6.7207e-07, 
            0.000182182 0.0423733 7.21596e-07, -0.0174527 0.0281347 7.68117e-07, -0.0140564 0.0323994 7.68117e-07, 0.000182182 0.0380907 7.68117e-07, 
            -0.0140564 0.0281347 7.88859e-07, 0.000182182 0.0281347 8.24366e-07, -0.0336216 0.0138961 6.25731e-07, -0.028295 0.0138961 7.05218e-07, 
            -0.0303384 -0.000342488 6.25731e-07, -0.028295 -0.000342488 6.57041e-07, -0.021571 0.0138961 7.68117e-07, -0.0159151 -0.000342488 7.68117e-07, 
            -0.0140564 0.0138961 8.16424e-07, 0.000182182 0.0138961 8.51047e-07, -0.0140564 -0.000342488 7.78991e-07, 0.000182182 -0.000342488 8.16842e-07, 
            0.0144208 0.045585 6.25731e-07, 0.0194079 0.0423733 6.25731e-07, 0.0144208 0.0423733 6.71607e-07, 0.0286594 0.0335399 6.25731e-07, 
            0.0144208 0.0319428 7.68117e-07, 0.0179082 0.0281347 7.68117e-07, 0.0286594 0.0281347 6.72582e-07, 0.031696 0.0281347 6.25731e-07, 
            0.0144208 0.0281347 7.87694e-07, 0.0228012 0.0138961 7.68117e-07, 0.0286594 0.0138961 7.15278e-07, 0.0164468 -0.000342488 7.68117e-07, 
            0.0286594 -0.000342488 6.5619e-07, 0.0346334 0.0138961 6.25731e-07, 0.0304608 -0.000342488 6.25731e-07, 0.0144208 0.0138961 8.17499e-07, 
            0.0144208 -0.000342488 7.79118e-07, -0.0140564 -0.003211 1.98573e-07, 0.000182182 -0.00988849 1.98573e-07, -0.028295 -0.00482963 3.40959e-07, 
            -0.028295 -0.0129968 4.83345e-07, -0.0228609 -0.0145811 3.40959e-07, -0.0140564 -0.0145811 2.63629e-07, 0.000182182 -0.0145811 2.29282e-07, 
            -0.0274977 -0.0145811 4.83345e-07, -0.0162702 -0.0288197 3.40959e-07, -0.0140564 -0.0288197 3.24324e-07, 0.000182182 -0.0288197 2.99859e-07, 
            -0.0232364 -0.0288197 4.83345e-07, -0.0140564 -0.031677 3.40959e-07, 0.000182182 -0.0346712 3.40959e-07, -0.0140564 -0.0417064 4.83345e-07, 
            0.000182182 -0.0428081 4.83345e-07, 0.0144208 -0.00305719 1.98573e-07, 0.0144208 -0.0145811 2.90654e-07, 0.0192904 -0.0145811 3.40959e-07, 
            0.0286594 -0.00272942 3.40959e-07, 0.0242838 -0.0145811 4.83345e-07, 0.0286594 -0.0088651 4.83345e-07, 0.00798368 -0.0288197 3.40959e-07, 
            0.0144208 -0.0200189 3.40959e-07, 0.0134158 -0.0288197 4.83345e-07, 0.0144208 -0.0269273 4.83345e-07, -0.028295 -0.0045683 6.25731e-07, 
            -0.0223719 -0.0145811 6.25731e-07, -0.0140564 -0.0145811 6.99665e-07, -0.0140564 -0.00256506 7.68117e-07, 0.000182182 -0.0145811 7.33479e-07, 
            0.000182182 -0.00881742 7.68117e-07, -0.0140564 -0.0288197 6.24773e-07, -0.0140564 -0.0285189 6.25731e-07, -0.0137536 -0.0288197 6.25731e-07, 
            0.000182182 -0.0288197 6.46803e-07, 0.000182182 -0.0319765 6.25731e-07, 0.0192136 -0.0145811 6.25731e-07, 0.0286594 -0.00338263 6.25731e-07, 
            0.0144208 -0.0145811 6.74569e-07, 0.0144208 -0.00239556 7.68117e-07, 0.00577932 -0.0288197 6.25731e-07, 0.0144208 -0.0193325 6.25731e-07
          ]
        }
        color Color
        {
          color
          [
            0 0 0, 0 0 0, 0 0 0, 0 0 0, 
            0 0 0, 0 0 0, 0 0 0, 0 0 0, 
            0 0 0, 0 0 0, 0 0 0, 0 0 0, 
            0 0 0, 0 0 0, 0 0 0, 0 0 0, 
            0 0 0, 0 0 0, 0 0 0, 0 0 0, 
            0 0 0, 0 0 0, 0 0 0, 0 0 0, 
            0 0 0, 0 0 0, 0 0 0, 0 0 0, 
            0 0 0, 0 0 0, 0 0 0, 0 0 0, 
            0 0 0, 0 0 0, 0 0 0, 0 0 0, 
            0 0 0, 0 0 0, 0 0 0, 0 0 0, 
            0 0 0, 0 0 0, 0 0 0, 0 0 0, 
            0 0 0, 0 0 0, 0 0 0, 0 0 0, 
            0 0 0, 0 0 0, 0 0 0, 0 0 0, 
            0 0 0, 0 0 0, 0 0 0, 0 0 0, 
            0 0 0, 0 0 0, 0 0 0, 0 0 0, 
            0 0 0, 0 0 0, 0 0 0, 0 0 0, 
            0 0 0, 0 0 0, 0 0 0, 0 0 0, 
            0 0 0, 0 0 0, 0 0 0, 0 0 0, 
            0 0 0, 0 0 0, 0 0 0, 0 0 0, 
            0 0 0, 0 0 0, 0 0 0, 0 0 0, 
            0 0 0, 0 0 0, 0 0 0, 0 0 0, 
            0 0 0, 0 0 0, 0 0 0, 0 0 0, 
            0 0 0, 0 0 0, 0 0 0, 0 0 0, 
            0 0 0, 0 0 0, 0 0 0, 0 0 0, 
            0 0 0, 0 0 0, 0 0 0, 0 0 0, 
            0 0 0, 0 0 0, 0 0 0, 0 0 0, 
            0 0 0, 0 0 0, 0 0 0, 0 0 0, 
            0 0 0, 0 0 0, 0 0 0, 0 0 0, 
            0 0 0, 0 0 0, 0 0 0, 0 0 0, 
            0 0 0, 0 0 0, 0 0 0, 0 0 0, 
            0 0 0, 0 0 0, 0 0 0, 0 0 0, 
            0 0 0, 0 0 0, 0 0 0, 0 0 0, 
            0 0 0, 0 0 0, 0 0 0, 0 0 0, 
            0 0 0, 0 0 0, 0 0 0, 0 0 0
          ]
        }
        coordIndex
        [
          0,2,1,-1, 3,1,2,-1, 2,4,3,-1, 5,7,6,-1, 8,9,7,-1, 8,7,5,-1, 
          10,12,11,-1, 11,12,14,-1, 11,14,13,-1, 10,15,16,-1, 16,12,10,-1, 16,17,14,-1, 
          14,12,16,-1, 2,6,7,-1, 7,10,11,-1, 7,11,2,-1, 6,2,0,-1, 11,13,4,-1, 
          4,2,11,-1, 15,10,7,-1, 7,9,15,-1, 19,18,0,-1, 0,1,19,-1, 19,1,3,-1, 
          19,3,20,-1, 21,18,19,-1, 21,19,22,-1, 23,22,19,-1, 19,20,23,-1, 24,5,6,-1, 
          24,6,25,-1, 24,26,8,-1, 8,5,24,-1, 28,27,24,-1, 24,25,28,-1, 29,26,24,-1, 
          29,24,27,-1, 18,25,6,-1, 6,0,18,-1, 28,25,18,-1, 28,18,21,-1, 3,4,31,-1, 
          3,31,30,-1, 30,31,32,-1, 33,13,14,-1, 14,34,33,-1, 33,34,35,-1, 36,34,14,-1, 
          36,14,17,-1, 35,34,36,-1, 35,36,37,-1, 33,31,4,-1, 33,4,13,-1, 38,32,31,-1, 
          31,33,35,-1, 31,35,39,-1, 31,39,38,-1, 37,40,39,-1, 37,39,35,-1, 38,39,41,-1, 
          42,41,39,-1, 39,40,42,-1, 43,20,3,-1, 3,30,43,-1, 43,30,32,-1, 43,32,44,-1, 
          23,20,43,-1, 23,43,45,-1, 46,45,43,-1, 43,44,46,-1, 44,32,38,-1, 44,38,47,-1, 
          46,44,47,-1, 46,47,48,-1, 49,47,38,-1, 38,41,49,-1, 49,41,42,-1, 49,42,50,-1, 
          48,47,49,-1, 48,49,51,-1, 52,51,49,-1, 49,50,52,-1, 8,53,54,-1, 54,9,8,-1, 
          55,54,53,-1, 56,57,16,-1, 56,16,15,-1, 58,17,16,-1, 58,16,57,-1, 59,57,56,-1, 
          59,60,58,-1, 58,57,59,-1, 15,9,54,-1, 15,54,56,-1, 54,61,62,-1, 54,62,59,-1, 
          59,56,54,-1, 61,54,55,-1, 59,62,63,-1, 59,63,60,-1, 64,62,61,-1, 65,63,62,-1, 
          65,62,64,-1, 66,53,8,-1, 66,8,26,-1, 66,67,55,-1, 55,53,66,-1, 29,68,66,-1, 
          66,26,29,-1, 69,67,66,-1, 69,66,68,-1, 70,61,55,-1, 70,55,67,-1, 69,71,70,-1, 
          70,67,69,-1, 72,64,61,-1, 72,61,70,-1, 72,73,65,-1, 65,64,72,-1, 71,74,72,-1, 
          72,70,71,-1, 75,73,72,-1, 75,72,74,-1, 58,76,36,-1, 36,17,58,-1, 77,37,36,-1, 
          36,76,77,-1, 78,76,58,-1, 78,58,60,-1, 77,76,78,-1, 37,77,79,-1, 79,40,37,-1, 
          78,60,63,-1, 63,80,78,-1, 80,82,79,-1, 79,77,78,-1, 79,78,80,-1, 82,80,81,-1, 
          42,40,79,-1, 42,79,83,-1, 83,79,82,-1, 65,84,80,-1, 80,63,65,-1, 81,80,84,-1, 
          85,86,82,-1, 82,81,85,-1, 88,86,85,-1, 88,85,87,-1, 89,50,42,-1, 42,83,89,-1, 
          89,83,82,-1, 89,82,86,-1, 52,50,89,-1, 52,89,90,-1, 88,90,89,-1, 89,86,88,-1, 
          91,84,65,-1, 91,65,73,-1, 91,85,81,-1, 81,84,91,-1, 75,92,91,-1, 91,73,75,-1, 
          87,85,91,-1, 87,91,92,-1, 22,93,21,-1, 23,94,93,-1, 23,93,22,-1, 28,95,27,-1, 
          29,27,95,-1, 95,96,29,-1, 98,97,95,-1, 95,28,21,-1, 95,21,93,-1, 95,93,98,-1, 
          98,93,94,-1, 98,94,99,-1, 97,100,96,-1, 96,95,97,-1, 101,97,98,-1, 101,98,102,-1, 
          103,102,98,-1, 98,99,103,-1, 104,100,97,-1, 104,97,101,-1, 102,105,101,-1, 103,106,105,-1, 
          103,105,102,-1, 104,101,105,-1, 105,107,104,-1, 107,105,106,-1, 107,106,108,-1, 23,45,109,-1, 
          109,94,23,-1, 46,109,45,-1, 110,99,94,-1, 94,109,110,-1, 110,109,46,-1, 111,110,46,-1, 
          46,48,111,-1, 48,112,111,-1, 111,112,114,-1, 111,114,113,-1, 115,103,99,-1, 99,110,116,-1, 
          99,116,115,-1, 111,116,110,-1, 115,116,118,-1, 115,118,117,-1, 113,118,116,-1, 113,116,111,-1, 
          51,112,48,-1, 52,114,112,-1, 52,112,51,-1, 115,106,103,-1, 117,108,106,-1, 117,106,115,-1, 
          29,96,119,-1, 29,119,68,-1, 68,119,69,-1, 120,119,96,-1, 120,96,100,-1, 69,121,122,-1, 
          122,71,69,-1, 121,69,119,-1, 121,119,120,-1, 121,123,124,-1, 124,122,121,-1, 104,125,126,-1, 
          104,126,120,-1, 120,100,104,-1, 127,126,125,-1, 120,126,121,-1, 128,123,121,-1, 128,121,126,-1, 
          128,126,127,-1, 71,122,74,-1, 75,74,122,-1, 122,124,75,-1, 104,107,125,-1, 127,125,107,-1, 
          107,108,129,-1, 107,129,127,-1, 127,129,128,-1, 130,113,114,-1, 114,131,130,-1, 132,133,124,-1, 
          132,124,123,-1, 130,131,88,-1, 132,130,88,-1, 88,87,132,-1, 87,133,132,-1, 134,117,118,-1, 
          118,135,134,-1, 113,130,135,-1, 135,118,113,-1, 123,134,135,-1, 135,132,123,-1, 134,123,128,-1, 
          132,135,130,-1, 52,90,131,-1, 131,114,52,-1, 88,131,90,-1, 75,124,133,-1, 75,133,92,-1, 
          92,133,87,-1, 117,134,129,-1, 129,108,117,-1, 128,129,134,-1
        ]
      }
      appearance Appearance
      {
        material Material
        {
	       ambientIntensity 0.2
	       diffuseColor 0.9 0.9 0.9
	       specularColor .1 .1 .1
	       shininess .5
        }
      }
    }
  ]
}
